sub/line_gen_stream.vcd
$date
	Wed Dec  7 15:50:03 2022
$end
$version
	Icarus Verilog
$end
$timescale
	1ps
$end
$scope module line_gen_stream_tb $end
$var wire 10 ! y_proj [9:0] $end
$var wire 10 " y [9:0] $end
$var wire 11 # x_proj [10:0] $end
$var wire 11 $ x [10:0] $end
$var wire 1 % new_input $end
$var reg 1 & clk_in $end
$var reg 1 ' data_valid_in $end
$var reg 1 ( rst_in $end
$var reg 11 ) x_origin [10:0] $end
$var reg 48 * x_vec [47:0] $end
$var reg 10 + y_origin [9:0] $end
$var reg 48 , y_vec [47:0] $end
$scope module uut $end
$var wire 1 & clk_in $end
$var wire 1 ' data_valid_in $end
$var wire 1 ( rst_in $end
$var wire 10 - y_in [9:0] $end
$var wire 11 . x_in [10:0] $end
$var reg 12 / dx [11:0] $end
$var reg 11 0 dy [10:0] $end
$var reg 12 1 err [11:0] $end
$var reg 1 2 has_first_point $end
$var reg 1 % next_point $end
$var reg 1 3 sx $end
$var reg 1 4 sy $end
$var reg 11 5 x [10:0] $end
$var reg 12 6 x_end [11:0] $end
$var reg 12 7 x_start [11:0] $end
$var reg 10 8 y [9:0] $end
$var reg 11 9 y_end [10:0] $end
$var reg 11 : y_start [10:0] $end
$var integer 32 ; state [31:0] $end
$upscope $end
$scope module uut_1 $end
$var wire 1 & clk_in $end
$var wire 1 % next_point $end
$var wire 1 ( rst_in $end
$var wire 11 < x_origin [10:0] $end
$var wire 48 = x_vec [47:0] $end
$var wire 10 > y_origin [9:0] $end
$var wire 48 ? y_vec [47:0] $end
$var reg 1 @ index $end
$var reg 96 A points [95:0] $end
$var reg 11 B x_proj [10:0] $end
$var reg 10 C y_proj [9:0] $end
$upscope $end
$upscope $end
$enddefinitions $end
#0
$dumpvars
bx C
bx B
b10000000000000010000000000000001000000000000000100000000000000010000000000000001000000000 A
x@
b0 ?
b0 >
b0 =
b0 <
b0 ;
bx :
bx 9
bx 8
bx 7
bx 6
bx 5
x4
x3
x2
bx 1
bx 0
bx /
bx .
bx -
b0 ,
b0 +
b0 *
b0 )
0(
x'
0&
x%
bx $
bx #
bx "
bx !
$end
#5000
02
1&
#10000
0&
1(
#15000
b0 !
b0 -
b0 C
b0 #
b0 .
b0 B
0@
0%
b0 "
b0 8
b0 $
b0 5
b0 1
14
13
b0 0
b0 /
1&
#20000
0&
1'
b10100000000000000100000000000000100 ,
b10100000000000000100000000000000100 ?
b1100000000000010000000000000001001 *
b1100000000000010000000000000001001 =
0(
#25000
b0 9
b0 6
12
b1100100 !
b1100100 -
b1100100 C
b1100100 #
b1100100 .
b1100100 B
1&
#30000
0&
#35000
b0 :
b0 7
b1100100 9
b1100100 6
b1 ;
1%
b11110011100 0
b1100100 /
1&
#40000
0&
#45000
b1 "
b1 8
b1 $
b1 5
0%
1@
1&
#50000
0&
#55000
b10001100 !
b10001100 -
b10001100 C
b10010110 #
b10010110 .
b10010110 B
b10 "
b10 8
b10 $
b10 5
1&
#60000
0&
#65000
b11 "
b11 8
b11 $
b11 5
1&
#70000
0&
#75000
b100 "
b100 8
b100 $
b100 5
1&
#80000
0&
#85000
b101 "
b101 8
b101 $
b101 5
1&
#90000
0&
#95000
b110 "
b110 8
b110 $
b110 5
1&
#100000
0&
#105000
b111 "
b111 8
b111 $
b111 5
1&
#110000
0&
#115000
b1000 "
b1000 8
b1000 $
b1000 5
1&
#120000
0&
#125000
b1001 "
b1001 8
b1001 $
b1001 5
1&
#130000
0&
#135000
b1010 "
b1010 8
b1010 $
b1010 5
1&
#140000
0&
#145000
b1011 "
b1011 8
b1011 $
b1011 5
1&
#150000
0&
#155000
b1100 "
b1100 8
b1100 $
b1100 5
1&
#160000
0&
#165000
b1101 "
b1101 8
b1101 $
b1101 5
1&
#170000
0&
#175000
b1110 "
b1110 8
b1110 $
b1110 5
1&
#180000
0&
#185000
b1111 "
b1111 8
b1111 $
b1111 5
1&
#190000
0&
#195000
b10000 "
b10000 8
b10000 $
b10000 5
1&
#200000
0&
#205000
b10001 "
b10001 8
b10001 $
b10001 5
1&
#210000
0&
#215000
b10010 "
b10010 8
b10010 $
b10010 5
1&
#220000
0&
#225000
b10011 "
b10011 8
b10011 $
b10011 5
1&
#230000
0&
#235000
b10100 "
b10100 8
b10100 $
b10100 5
1&
#240000
0&
#245000
b10101 "
b10101 8
b10101 $
b10101 5
1&
#250000
0&
#255000
b10110 "
b10110 8
b10110 $
b10110 5
1&
#260000
0&
#265000
b10111 "
b10111 8
b10111 $
b10111 5
1&
#270000
0&
#275000
b11000 "
b11000 8
b11000 $
b11000 5
1&
#280000
0&
#285000
b11001 "
b11001 8
b11001 $
b11001 5
1&
#290000
0&
#295000
b11010 "
b11010 8
b11010 $
b11010 5
1&
#300000
0&
#305000
b11011 "
b11011 8
b11011 $
b11011 5
1&
#310000
0&
#315000
b11100 "
b11100 8
b11100 $
b11100 5
1&
#320000
0&
#325000
b11101 "
b11101 8
b11101 $
b11101 5
1&
#330000
0&
#335000
b11110 "
b11110 8
b11110 $
b11110 5
1&
#340000
0&
#345000
b11111 "
b11111 8
b11111 $
b11111 5
1&
#350000
0&
#355000
b100000 "
b100000 8
b100000 $
b100000 5
1&
#360000
0&
#365000
b100001 "
b100001 8
b100001 $
b100001 5
1&
#370000
0&
#375000
b100010 "
b100010 8
b100010 $
b100010 5
1&
#380000
0&
#385000
b100011 "
b100011 8
b100011 $
b100011 5
1&
#390000
0&
#395000
b100100 "
b100100 8
b100100 $
b100100 5
1&
#400000
0&
#405000
b100101 "
b100101 8
b100101 $
b100101 5
1&
#410000
0&
#415000
b100110 "
b100110 8
b100110 $
b100110 5
1&
#420000
0&
#425000
b100111 "
b100111 8
b100111 $
b100111 5
1&
#430000
0&
#435000
b101000 "
b101000 8
b101000 $
b101000 5
1&
#440000
0&
#445000
b101001 "
b101001 8
b101001 $
b101001 5
1&
#450000
0&
#455000
b101010 "
b101010 8
b101010 $
b101010 5
1&
#460000
0&
#465000
b101011 "
b101011 8
b101011 $
b101011 5
1&
#470000
0&
#475000
b101100 "
b101100 8
b101100 $
b101100 5
1&
#480000
0&
#485000
b101101 "
b101101 8
b101101 $
b101101 5
1&
#490000
0&
#495000
b101110 "
b101110 8
b101110 $
b101110 5
1&
#500000
0&
#505000
b101111 "
b101111 8
b101111 $
b101111 5
1&
#510000
0&
#515000
b110000 "
b110000 8
b110000 $
b110000 5
1&
#520000
0&
#525000
b110001 "
b110001 8
b110001 $
b110001 5
1&
#530000
0&
#535000
b110010 "
b110010 8
b110010 $
b110010 5
1&
#540000
0&
#545000
b110011 "
b110011 8
b110011 $
b110011 5
1&
#550000
0&
#555000
b110100 "
b110100 8
b110100 $
b110100 5
1&
#560000
0&
#565000
b110101 "
b110101 8
b110101 $
b110101 5
1&
#570000
0&
#575000
b110110 "
b110110 8
b110110 $
b110110 5
1&
#580000
0&
#585000
b110111 "
b110111 8
b110111 $
b110111 5
1&
#590000
0&
#595000
b111000 "
b111000 8
b111000 $
b111000 5
1&
#600000
0&
#605000
b111001 "
b111001 8
b111001 $
b111001 5
1&
#610000
0&
#615000
b111010 "
b111010 8
b111010 $
b111010 5
1&
#620000
0&
#625000
b111011 "
b111011 8
b111011 $
b111011 5
1&
#630000
0&
#635000
b111100 "
b111100 8
b111100 $
b111100 5
1&
#640000
0&
#645000
b111101 "
b111101 8
b111101 $
b111101 5
1&
#650000
0&
#655000
b111110 "
b111110 8
b111110 $
b111110 5
1&
#660000
0&
#665000
b111111 "
b111111 8
b111111 $
b111111 5
1&
#670000
0&
#675000
b1000000 "
b1000000 8
b1000000 $
b1000000 5
1&
#680000
0&
#685000
b1000001 "
b1000001 8
b1000001 $
b1000001 5
1&
#690000
0&
#695000
b1000010 "
b1000010 8
b1000010 $
b1000010 5
1&
#700000
0&
#705000
b1000011 "
b1000011 8
b1000011 $
b1000011 5
1&
#710000
0&
#715000
b1000100 "
b1000100 8
b1000100 $
b1000100 5
1&
#720000
0&
#725000
b1000101 "
b1000101 8
b1000101 $
b1000101 5
1&
#730000
0&
#735000
b1000110 "
b1000110 8
b1000110 $
b1000110 5
1&
#740000
0&
#745000
b1000111 "
b1000111 8
b1000111 $
b1000111 5
1&
#750000
0&
#755000
b1001000 "
b1001000 8
b1001000 $
b1001000 5
1&
#760000
0&
#765000
b1001001 "
b1001001 8
b1001001 $
b1001001 5
1&
#770000
0&
#775000
b1001010 "
b1001010 8
b1001010 $
b1001010 5
1&
#780000
0&
#785000
b1001011 "
b1001011 8
b1001011 $
b1001011 5
1&
#790000
0&
#795000
b1001100 "
b1001100 8
b1001100 $
b1001100 5
1&
#800000
0&
#805000
b1001101 "
b1001101 8
b1001101 $
b1001101 5
1&
#810000
0&
#815000
b1001110 "
b1001110 8
b1001110 $
b1001110 5
1&
#820000
0&
#825000
b1001111 "
b1001111 8
b1001111 $
b1001111 5
1&
#830000
0&
#835000
b1010000 "
b1010000 8
b1010000 $
b1010000 5
1&
#840000
0&
#845000
b1010001 "
b1010001 8
b1010001 $
b1010001 5
1&
#850000
0&
#855000
b1010010 "
b1010010 8
b1010010 $
b1010010 5
1&
#860000
0&
#865000
b1010011 "
b1010011 8
b1010011 $
b1010011 5
1&
#870000
0&
#875000
b1010100 "
b1010100 8
b1010100 $
b1010100 5
1&
#880000
0&
#885000
b1010101 "
b1010101 8
b1010101 $
b1010101 5
1&
#890000
0&
#895000
b1010110 "
b1010110 8
b1010110 $
b1010110 5
1&
#900000
0&
#905000
b1010111 "
b1010111 8
b1010111 $
b1010111 5
1&
#910000
0&
#915000
b1011000 "
b1011000 8
b1011000 $
b1011000 5
1&
#920000
0&
#925000
b1011001 "
b1011001 8
b1011001 $
b1011001 5
1&
#930000
0&
#935000
b1011010 "
b1011010 8
b1011010 $
b1011010 5
1&
#940000
0&
#945000
b1011011 "
b1011011 8
b1011011 $
b1011011 5
1&
#950000
0&
#955000
b1011100 "
b1011100 8
b1011100 $
b1011100 5
1&
#960000
0&
#965000
b1011101 "
b1011101 8
b1011101 $
b1011101 5
1&
#970000
0&
#975000
b1011110 "
b1011110 8
b1011110 $
b1011110 5
1&
#980000
0&
#985000
b1011111 "
b1011111 8
b1011111 $
b1011111 5
1&
#990000
0&
#995000
b1100000 "
b1100000 8
b1100000 $
b1100000 5
1&
#1000000
0&
#1005000
b1100001 "
b1100001 8
b1100001 $
b1100001 5
1&
#1010000
0&
#1015000
b1100010 "
b1100010 8
b1100010 $
b1100010 5
1&
#1020000
0&
#1025000
b1100011 "
b1100011 8
b1100011 $
b1100011 5
1&
#1030000
0&
#1035000
b1100100 "
b1100100 8
b1100100 $
b1100100 5
1&
#1040000
0&
#1045000
b0 ;
1&
#1050000
0&
#1055000
b1100100 :
b1100100 7
b10001100 9
b10010110 6
b1010 1
b1 ;
1%
b11111011000 0
b110010 /
1&
#1060000
0&
#1065000
b10100 1
b1100101 "
b1100101 8
b1100101 $
b1100101 5
0%
0@
1&
#1070000
0&
#1075000
b1100100 !
b1100100 -
b1100100 C
b1100100 #
b1100100 .
b1100100 B
b11110 1
b1100110 "
b1100110 8
b1100110 $
b1100110 5
1&
#1080000
0&
#1085000
b111111110110 1
b1100111 $
b1100111 5
1&
#1090000
0&
#1095000
b0 1
b1100111 "
b1100111 8
b1101000 $
b1101000 5
1&
#1100000
0&
#1105000
b1010 1
b1101000 "
b1101000 8
b1101001 $
b1101001 5
1&
#1110000
0&
#1115000
b10100 1
b1101001 "
b1101001 8
b1101010 $
b1101010 5
1&
#1120000
0&
#1125000
b11110 1
b1101010 "
b1101010 8
b1101011 $
b1101011 5
1&
#1130000
0&
#1135000
b111111110110 1
b1101100 $
b1101100 5
1&
#1140000
0&
#1145000
b0 1
b1101011 "
b1101011 8
b1101101 $
b1101101 5
1&
#1150000
0&
#1155000
b1010 1
b1101100 "
b1101100 8
b1101110 $
b1101110 5
1&
#1160000
0&
#1165000
b10100 1
b1101101 "
b1101101 8
b1101111 $
b1101111 5
1&
#1170000
0&
#1175000
b11110 1
b1101110 "
b1101110 8
b1110000 $
b1110000 5
1&
#1180000
0&
#1185000
b111111110110 1
b1110001 $
b1110001 5
1&
#1190000
0&
#1195000
b0 1
b1101111 "
b1101111 8
b1110010 $
b1110010 5
1&
#1200000
0&
#1205000
b1010 1
b1110000 "
b1110000 8
b1110011 $
b1110011 5
1&
#1210000
0&
#1215000
b10100 1
b1110001 "
b1110001 8
b1110100 $
b1110100 5
1&
#1220000
0&
#1225000
b11110 1
b1110010 "
b1110010 8
b1110101 $
b1110101 5
1&
#1230000
0&
#1235000
b111111110110 1
b1110110 $
b1110110 5
1&
#1240000
0&
#1245000
b0 1
b1110011 "
b1110011 8
b1110111 $
b1110111 5
1&
#1250000
0&
#1255000
b1010 1
b1110100 "
b1110100 8
b1111000 $
b1111000 5
1&
#1260000
0&
#1265000
b10100 1
b1110101 "
b1110101 8
b1111001 $
b1111001 5
1&
#1270000
0&
#1275000
b11110 1
b1110110 "
b1110110 8
b1111010 $
b1111010 5
1&
#1280000
0&
#1285000
b111111110110 1
b1111011 $
b1111011 5
1&
#1290000
0&
#1295000
b0 1
b1110111 "
b1110111 8
b1111100 $
b1111100 5
1&
#1300000
0&
#1305000
b1010 1
b1111000 "
b1111000 8
b1111101 $
b1111101 5
1&
#1310000
0&
#1315000
b10100 1
b1111001 "
b1111001 8
b1111110 $
b1111110 5
1&
#1320000
0&
#1325000
b11110 1
b1111010 "
b1111010 8
b1111111 $
b1111111 5
1&
#1330000
0&
#1335000
b111111110110 1
b10000000 $
b10000000 5
1&
#1340000
0&
#1345000
b0 1
b1111011 "
b1111011 8
b10000001 $
b10000001 5
1&
#1350000
0&
#1355000
b1010 1
b1111100 "
b1111100 8
b10000010 $
b10000010 5
1&
#1360000
0&
#1365000
b10100 1
b1111101 "
b1111101 8
b10000011 $
b10000011 5
1&
#1370000
0&
#1375000
b11110 1
b1111110 "
b1111110 8
b10000100 $
b10000100 5
1&
#1380000
0&
#1385000
b111111110110 1
b10000101 $
b10000101 5
1&
#1390000
0&
#1395000
b0 1
b1111111 "
b1111111 8
b10000110 $
b10000110 5
1&
#1400000
0&
#1405000
b1010 1
b10000000 "
b10000000 8
b10000111 $
b10000111 5
1&
#1410000
0&
#1415000
b10100 1
b10000001 "
b10000001 8
b10001000 $
b10001000 5
1&
#1420000
0&
#1425000
b11110 1
b10000010 "
b10000010 8
b10001001 $
b10001001 5
1&
#1430000
0&
#1435000
b111111110110 1
b10001010 $
b10001010 5
1&
#1440000
0&
#1445000
b0 1
b10000011 "
b10000011 8
b10001011 $
b10001011 5
1&
#1450000
0&
#1455000
b1010 1
b10000100 "
b10000100 8
b10001100 $
b10001100 5
1&
#1460000
0&
#1465000
b10100 1
b10000101 "
b10000101 8
b10001101 $
b10001101 5
1&
#1470000
0&
#1475000
b11110 1
b10000110 "
b10000110 8
b10001110 $
b10001110 5
1&
#1480000
0&
#1485000
b111111110110 1
b10001111 $
b10001111 5
1&
#1490000
0&
#1495000
b0 1
b10000111 "
b10000111 8
b10010000 $
b10010000 5
1&
#1500000
0&
#1505000
b1010 1
b10001000 "
b10001000 8
b10010001 $
b10010001 5
1&
#1510000
0&
#1515000
b10100 1
b10001001 "
b10001001 8
b10010010 $
b10010010 5
1&
#1520000
0&
#1525000
b11110 1
b10001010 "
b10001010 8
b10010011 $
b10010011 5
1&
#1530000
0&
#1535000
b111111110110 1
b10010100 $
b10010100 5
1&
#1540000
0&
#1545000
b0 1
b10001011 "
b10001011 8
b10010101 $
b10010101 5
1&
#1550000
0&
#1555000
b1010 1
b10001100 "
b10001100 8
b10010110 $
b10010110 5
1&
#1560000
0&
#1565000
b0 ;
1&
#1570000
0&
#1575000
b10001100 :
b10010110 7
b1100100 9
b1100100 6
b1 ;
1%
04
03
1&
#1580000
0&
#1585000
b10100 1
b10001011 "
b10001011 8
b10010101 $
b10010101 5
0%
1@
1&
#1590000
0&
#1595000
b10001100 !
b10001100 -
b10001100 C
b10010110 #
b10010110 .
b10010110 B
b11110 1
b10001010 "
b10001010 8
b10010100 $
b10010100 5
1&
#1600000
0&
#1605000
b111111110110 1
b10010011 $
b10010011 5
1&
#1610000
0&
#1615000
b0 1
b10001001 "
b10001001 8
b10010010 $
b10010010 5
1&
#1620000
0&
#1625000
b1010 1
b10001000 "
b10001000 8
b10010001 $
b10010001 5
1&
#1630000
0&
#1635000
b10100 1
b10000111 "
b10000111 8
b10010000 $
b10010000 5
1&
#1640000
0&
#1645000
b11110 1
b10000110 "
b10000110 8
b10001111 $
b10001111 5
1&
#1650000
0&
#1655000
b111111110110 1
b10001110 $
b10001110 5
1&
#1660000
0&
#1665000
b0 1
b10000101 "
b10000101 8
b10001101 $
b10001101 5
1&
#1670000
0&
#1675000
b1010 1
b10000100 "
b10000100 8
b10001100 $
b10001100 5
1&
#1680000
0&
#1685000
b10100 1
b10000011 "
b10000011 8
b10001011 $
b10001011 5
1&
#1690000
0&
#1695000
b11110 1
b10000010 "
b10000010 8
b10001010 $
b10001010 5
1&
#1700000
0&
#1705000
b111111110110 1
b10001001 $
b10001001 5
1&
#1710000
0&
#1715000
b0 1
b10000001 "
b10000001 8
b10001000 $
b10001000 5
1&
#1720000
0&
#1725000
b1010 1
b10000000 "
b10000000 8
b10000111 $
b10000111 5
1&
#1730000
0&
#1735000
b10100 1
b1111111 "
b1111111 8
b10000110 $
b10000110 5
1&
#1740000
0&
#1745000
b11110 1
b1111110 "
b1111110 8
b10000101 $
b10000101 5
1&
#1750000
0&
#1755000
b111111110110 1
b10000100 $
b10000100 5
1&
#1760000
0&
#1765000
b0 1
b1111101 "
b1111101 8
b10000011 $
b10000011 5
1&
#1770000
0&
#1775000
b1010 1
b1111100 "
b1111100 8
b10000010 $
b10000010 5
1&
#1780000
0&
#1785000
b10100 1
b1111011 "
b1111011 8
b10000001 $
b10000001 5
1&
#1790000
0&
#1795000
b11110 1
b1111010 "
b1111010 8
b10000000 $
b10000000 5
1&
#1800000
0&
#1805000
b111111110110 1
b1111111 $
b1111111 5
1&
#1810000
0&
#1815000
b0 1
b1111001 "
b1111001 8
b1111110 $
b1111110 5
1&
#1820000
0&
#1825000
b1010 1
b1111000 "
b1111000 8
b1111101 $
b1111101 5
1&
#1830000
0&
#1835000
b10100 1
b1110111 "
b1110111 8
b1111100 $
b1111100 5
1&
#1840000
0&
#1845000
b11110 1
b1110110 "
b1110110 8
b1111011 $
b1111011 5
1&
#1850000
0&
#1855000
b111111110110 1
b1111010 $
b1111010 5
1&
#1860000
0&
#1865000
b0 1
b1110101 "
b1110101 8
b1111001 $
b1111001 5
1&
#1870000
0&
#1875000
b1010 1
b1110100 "
b1110100 8
b1111000 $
b1111000 5
1&
#1880000
0&
#1885000
b10100 1
b1110011 "
b1110011 8
b1110111 $
b1110111 5
1&
#1890000
0&
#1895000
b11110 1
b1110010 "
b1110010 8
b1110110 $
b1110110 5
1&
#1900000
0&
#1905000
b111111110110 1
b1110101 $
b1110101 5
1&
#1910000
0&
#1915000
b0 1
b1110001 "
b1110001 8
b1110100 $
b1110100 5
1&
#1920000
0&
#1925000
b1010 1
b1110000 "
b1110000 8
b1110011 $
b1110011 5
1&
#1930000
0&
#1935000
b10100 1
b1101111 "
b1101111 8
b1110010 $
b1110010 5
1&
#1940000
0&
#1945000
b11110 1
b1101110 "
b1101110 8
b1110001 $
b1110001 5
1&
#1950000
0&
#1955000
b111111110110 1
b1110000 $
b1110000 5
1&
#1960000
0&
#1965000
b0 1
b1101101 "
b1101101 8
b1101111 $
b1101111 5
1&
#1970000
0&
#1975000
b1010 1
b1101100 "
b1101100 8
b1101110 $
b1101110 5
1&
#1980000
0&
#1985000
b10100 1
b1101011 "
b1101011 8
b1101101 $
b1101101 5
1&
#1990000
0&
#1995000
b11110 1
b1101010 "
b1101010 8
b1101100 $
b1101100 5
1&
#2000000
0&
#2005000
b111111110110 1
b1101011 $
b1101011 5
1&
#2010000
0&
#2015000
b0 1
b1101001 "
b1101001 8
b1101010 $
b1101010 5
1&
#2020000
0&
#2025000
b1010 1
b1101000 "
b1101000 8
b1101001 $
b1101001 5
1&
#2030000
0&
#2035000
b10100 1
b1100111 "
b1100111 8
b1101000 $
b1101000 5
1&
#2040000
0&
#2045000
b11110 1
b1100110 "
b1100110 8
b1100111 $
b1100111 5
1&
#2050000
0&
#2055000
b111111110110 1
b1100110 $
b1100110 5
1&
#2060000
0&
#2065000
b0 1
b1100101 "
b1100101 8
b1100101 $
b1100101 5
1&
#2070000
0&
#2075000
b1010 1
b1100100 "
b1100100 8
b1100100 $
b1100100 5
1&
#2080000
0&
#2085000
b0 ;
1&
#2090000
0&
#2095000
b1100100 :
b1100100 7
b10001100 9
b10010110 6
b1 ;
1%
14
13
1&
#2100000
0&
#2105000
b10100 1
b1100101 "
b1100101 8
b1100101 $
b1100101 5
0%
0@
1&
#2110000
0&
#2115000
b1100100 !
b1100100 -
b1100100 C
b1100100 #
b1100100 .
b1100100 B
b11110 1
b1100110 "
b1100110 8
b1100110 $
b1100110 5
1&
#2120000
0&
#2125000
b111111110110 1
b1100111 $
b1100111 5
1&
#2130000
0&
#2135000
b0 1
b1100111 "
b1100111 8
b1101000 $
b1101000 5
1&
#2140000
0&
#2145000
b1010 1
b1101000 "
b1101000 8
b1101001 $
b1101001 5
1&
#2150000
0&
#2155000
b10100 1
b1101001 "
b1101001 8
b1101010 $
b1101010 5
1&
#2160000
0&
#2165000
b11110 1
b1101010 "
b1101010 8
b1101011 $
b1101011 5
1&
#2170000
0&
#2175000
b111111110110 1
b1101100 $
b1101100 5
1&
#2180000
0&
#2185000
b0 1
b1101011 "
b1101011 8
b1101101 $
b1101101 5
1&
#2190000
0&
#2195000
b1010 1
b1101100 "
b1101100 8
b1101110 $
b1101110 5
1&
#2200000
0&
#2205000
b10100 1
b1101101 "
b1101101 8
b1101111 $
b1101111 5
1&
#2210000
0&
#2215000
b11110 1
b1101110 "
b1101110 8
b1110000 $
b1110000 5
1&
#2220000
0&
#2225000
b111111110110 1
b1110001 $
b1110001 5
1&
#2230000
0&
#2235000
b0 1
b1101111 "
b1101111 8
b1110010 $
b1110010 5
1&
#2240000
0&
#2245000
b1010 1
b1110000 "
b1110000 8
b1110011 $
b1110011 5
1&
#2250000
0&
#2255000
b10100 1
b1110001 "
b1110001 8
b1110100 $
b1110100 5
1&
#2260000
0&
#2265000
b11110 1
b1110010 "
b1110010 8
b1110101 $
b1110101 5
1&
#2270000
0&
#2275000
b111111110110 1
b1110110 $
b1110110 5
1&
#2280000
0&
#2285000
b0 1
b1110011 "
b1110011 8
b1110111 $
b1110111 5
1&
#2290000
0&
#2295000
b1010 1
b1110100 "
b1110100 8
b1111000 $
b1111000 5
1&
#2300000
0&
#2305000
b10100 1
b1110101 "
b1110101 8
b1111001 $
b1111001 5
1&
#2310000
0&
#2315000
b11110 1
b1110110 "
b1110110 8
b1111010 $
b1111010 5
1&
#2320000
0&
#2325000
b111111110110 1
b1111011 $
b1111011 5
1&
#2330000
0&
#2335000
b0 1
b1110111 "
b1110111 8
b1111100 $
b1111100 5
1&
#2340000
0&
#2345000
b1010 1
b1111000 "
b1111000 8
b1111101 $
b1111101 5
1&
#2350000
0&
#2355000
b10100 1
b1111001 "
b1111001 8
b1111110 $
b1111110 5
1&
#2360000
0&
#2365000
b11110 1
b1111010 "
b1111010 8
b1111111 $
b1111111 5
1&
#2370000
0&
#2375000
b111111110110 1
b10000000 $
b10000000 5
1&
#2380000
0&
#2385000
b0 1
b1111011 "
b1111011 8
b10000001 $
b10000001 5
1&
#2390000
0&
#2395000
b1010 1
b1111100 "
b1111100 8
b10000010 $
b10000010 5
1&
#2400000
0&
#2405000
b10100 1
b1111101 "
b1111101 8
b10000011 $
b10000011 5
1&
#2410000
0&
#2415000
b11110 1
b1111110 "
b1111110 8
b10000100 $
b10000100 5
1&
#2420000
0&
#2425000
b111111110110 1
b10000101 $
b10000101 5
1&
#2430000
0&
#2435000
b0 1
b1111111 "
b1111111 8
b10000110 $
b10000110 5
1&
#2440000
0&
#2445000
b1010 1
b10000000 "
b10000000 8
b10000111 $
b10000111 5
1&
#2450000
0&
#2455000
b10100 1
b10000001 "
b10000001 8
b10001000 $
b10001000 5
1&
#2460000
0&
#2465000
b11110 1
b10000010 "
b10000010 8
b10001001 $
b10001001 5
1&
#2470000
0&
#2475000
b111111110110 1
b10001010 $
b10001010 5
1&
#2480000
0&
#2485000
b0 1
b10000011 "
b10000011 8
b10001011 $
b10001011 5
1&
#2490000
0&
#2495000
b1010 1
b10000100 "
b10000100 8
b10001100 $
b10001100 5
1&
#2500000
0&
#2505000
b10100 1
b10000101 "
b10000101 8
b10001101 $
b10001101 5
1&
#2510000
0&
#2515000
b11110 1
b10000110 "
b10000110 8
b10001110 $
b10001110 5
1&
#2520000
0&
#2525000
b111111110110 1
b10001111 $
b10001111 5
1&
#2530000
0&
#2535000
b0 1
b10000111 "
b10000111 8
b10010000 $
b10010000 5
1&
#2540000
0&
#2545000
b1010 1
b10001000 "
b10001000 8
b10010001 $
b10010001 5
1&
#2550000
0&
#2555000
b10100 1
b10001001 "
b10001001 8
b10010010 $
b10010010 5
1&
#2560000
0&
#2565000
b11110 1
b10001010 "
b10001010 8
b10010011 $
b10010011 5
1&
#2570000
0&
#2575000
b111111110110 1
b10010100 $
b10010100 5
1&
#2580000
0&
#2585000
b0 1
b10001011 "
b10001011 8
b10010101 $
b10010101 5
1&
#2590000
0&
#2595000
b1010 1
b10001100 "
b10001100 8
b10010110 $
b10010110 5
1&
#2600000
0&
#2605000
b0 ;
1&
#2610000
0&
#2615000
b10001100 :
b10010110 7
b1100100 9
b1100100 6
b1 ;
1%
04
03
1&
#2620000
0&
#2625000
b10100 1
b10001011 "
b10001011 8
b10010101 $
b10010101 5
0%
1@
1&
#2630000
0&
#2635000
b10001100 !
b10001100 -
b10001100 C
b10010110 #
b10010110 .
b10010110 B
b11110 1
b10001010 "
b10001010 8
b10010100 $
b10010100 5
1&
#2640000
0&
#2645000
b111111110110 1
b10010011 $
b10010011 5
1&
#2650000
0&
#2655000
b0 1
b10001001 "
b10001001 8
b10010010 $
b10010010 5
1&
#2660000
0&
#2665000
b1010 1
b10001000 "
b10001000 8
b10010001 $
b10010001 5
1&
#2670000
0&
#2675000
b10100 1
b10000111 "
b10000111 8
b10010000 $
b10010000 5
1&
#2680000
0&
#2685000
b11110 1
b10000110 "
b10000110 8
b10001111 $
b10001111 5
1&
#2690000
0&
#2695000
b111111110110 1
b10001110 $
b10001110 5
1&
#2700000
0&
#2705000
b0 1
b10000101 "
b10000101 8
b10001101 $
b10001101 5
1&
#2710000
0&
#2715000
b1010 1
b10000100 "
b10000100 8
b10001100 $
b10001100 5
1&
#2720000
0&
#2725000
b10100 1
b10000011 "
b10000011 8
b10001011 $
b10001011 5
1&
#2730000
0&
#2735000
b11110 1
b10000010 "
b10000010 8
b10001010 $
b10001010 5
1&
#2740000
0&
#2745000
b111111110110 1
b10001001 $
b10001001 5
1&
#2750000
0&
#2755000
b0 1
b10000001 "
b10000001 8
b10001000 $
b10001000 5
1&
#2760000
0&
#2765000
b1010 1
b10000000 "
b10000000 8
b10000111 $
b10000111 5
1&
#2770000
0&
#2775000
b10100 1
b1111111 "
b1111111 8
b10000110 $
b10000110 5
1&
#2780000
0&
#2785000
b11110 1
b1111110 "
b1111110 8
b10000101 $
b10000101 5
1&
#2790000
0&
#2795000
b111111110110 1
b10000100 $
b10000100 5
1&
#2800000
0&
#2805000
b0 1
b1111101 "
b1111101 8
b10000011 $
b10000011 5
1&
#2810000
0&
#2815000
b1010 1
b1111100 "
b1111100 8
b10000010 $
b10000010 5
1&
#2820000
0&
#2825000
b10100 1
b1111011 "
b1111011 8
b10000001 $
b10000001 5
1&
#2830000
0&
#2835000
b11110 1
b1111010 "
b1111010 8
b10000000 $
b10000000 5
1&
#2840000
0&
#2845000
b111111110110 1
b1111111 $
b1111111 5
1&
#2850000
0&
#2855000
b0 1
b1111001 "
b1111001 8
b1111110 $
b1111110 5
1&
#2860000
0&
#2865000
b1010 1
b1111000 "
b1111000 8
b1111101 $
b1111101 5
1&
#2870000
0&
#2875000
b10100 1
b1110111 "
b1110111 8
b1111100 $
b1111100 5
1&
#2880000
0&
#2885000
b11110 1
b1110110 "
b1110110 8
b1111011 $
b1111011 5
1&
#2890000
0&
#2895000
b111111110110 1
b1111010 $
b1111010 5
1&
#2900000
0&
#2905000
b0 1
b1110101 "
b1110101 8
b1111001 $
b1111001 5
1&
#2910000
0&
#2915000
b1010 1
b1110100 "
b1110100 8
b1111000 $
b1111000 5
1&
#2920000
0&
#2925000
b10100 1
b1110011 "
b1110011 8
b1110111 $
b1110111 5
1&
#2930000
0&
#2935000
b11110 1
b1110010 "
b1110010 8
b1110110 $
b1110110 5
1&
#2940000
0&
#2945000
b111111110110 1
b1110101 $
b1110101 5
1&
#2950000
0&
#2955000
b0 1
b1110001 "
b1110001 8
b1110100 $
b1110100 5
1&
#2960000
0&
#2965000
b1010 1
b1110000 "
b1110000 8
b1110011 $
b1110011 5
1&
#2970000
0&
#2975000
b10100 1
b1101111 "
b1101111 8
b1110010 $
b1110010 5
1&
#2980000
0&
#2985000
b11110 1
b1101110 "
b1101110 8
b1110001 $
b1110001 5
1&
#2990000
0&
#2995000
b111111110110 1
b1110000 $
b1110000 5
1&
#3000000
0&
#3005000
b0 1
b1101101 "
b1101101 8
b1101111 $
b1101111 5
1&
#3010000
0&
#3015000
b1010 1
b1101100 "
b1101100 8
b1101110 $
b1101110 5
1&
#3020000
0&
#3025000
b10100 1
b1101011 "
b1101011 8
b1101101 $
b1101101 5
1&
#3030000
0&
#3035000
b11110 1
b1101010 "
b1101010 8
b1101100 $
b1101100 5
1&
#3040000
0&
