sub/load_animation.vcd
$date
	Mon Dec 12 22:01:49 2022
$end
$version
	Icarus Verilog
$end
$timescale
	1ps
$end
$scope module load_animation_tb $end
$var wire 48 ! point_scalars [47:0] $end
$var wire 4 " point_color [3:0] $end
$var reg 1 # clk_in $end
$var reg 1 $ next_point $end
$var reg 1 % rst_in $end
$scope module uut $end
$var wire 1 # clk_in $end
$var wire 1 $ next_point $end
$var wire 1 % rst_in $end
$var wire 48 & point_scalars [47:0] $end
$var wire 4 ' point_color [3:0] $end
$var reg 22 ( counter [21:0] $end
$scope module point_load $end
$var wire 1 # clk_in $end
$var wire 32 ) curr_frame [31:0] $end
$var wire 1 $ next_point $end
$var wire 3 * offset [2:0] $end
$var wire 1 % rst_in $end
$var wire 48 + point_scalars [47:0] $end
$var wire 4 , point_color [3:0] $end
$var reg 6 - index [5:0] $end
$scope module image $end
$var wire 8 . addra [7:0] $end
$var wire 1 # clka $end
$var wire 52 / dina [51:0] $end
$var wire 1 0 ena $end
$var wire 1 1 regcea $end
$var wire 1 % rsta $end
$var wire 1 2 wea $end
$var wire 52 3 douta [51:0] $end
$var reg 52 4 ram_data [51:0] $end
$scope function clogb2 $end
$var integer 32 5 depth [31:0] $end
$upscope $end
$scope begin output_register $end
$var reg 52 6 douta_reg [51:0] $end
$upscope $end
$scope begin use_init_file $end
$upscope $end
$upscope $end
$upscope $end
$upscope $end
$scope begin $ivl_for_loop0 $end
$var integer 32 7 i [31:0] $end
$upscope $end
$upscope $end
$enddefinitions $end
#0
$dumpvars
b0 7
b0 6
bx 5
b0 4
b0 3
02
11
10
b0 /
bx .
bx -
b0 ,
b0 +
b0xx *
bz )
bx (
b0 '
b0 &
0%
x$
0#
b0 "
b0 !
$end
#5000
bx 4
1#
#10000
0#
1%
#15000
b0 .
b0 *
b0 (
b0 -
1#
#20000
0#
0%
#25000
bx !
bx &
bx +
bx "
bx '
bx ,
bx 3
bx 6
b111111110111010000000000111100000000000001010000 4
b1 (
1#
#30000
0#
1$
#35000
b1 .
b111111110111010000000000111100000000000001010000 !
b111111110111010000000000111100000000000001010000 &
b111111110111010000000000111100000000000001010000 +
b0 "
b0 '
b0 ,
b10 (
b1 -
b111111110111010000000000111100000000000001010000 3
b111111110111010000000000111100000000000001010000 6
1#
#40000
0#
0$
#45000
b111111110010010000000000111100000000000001010000 4
b11 (
1#
#50000
0#
1$
b1 7
#55000
b10 .
b111111110010010000000000111100000000000001010000 !
b111111110010010000000000111100000000000001010000 &
b111111110010010000000000111100000000000001010000 +
b100 (
b10 -
b111111110010010000000000111100000000000001010000 3
b111111110010010000000000111100000000000001010000 6
1#
#60000
0#
0$
#65000
b111111110111010000000000101000000000000001010000 4
b101 (
1#
#70000
0#
1$
b10 7
#75000
b11 .
b111111110111010000000000101000000000000001010000 !
b111111110111010000000000101000000000000001010000 &
b111111110111010000000000101000000000000001010000 +
b110 (
b11 -
b111111110111010000000000101000000000000001010000 3
b111111110111010000000000101000000000000001010000 6
1#
#80000
0#
0$
#85000
b111111110111010000000000111100000000000001010000 4
b111 (
1#
#90000
0#
1$
b11 7
#95000
b100 .
b111111110111010000000000111100000000000001010000 !
b111111110111010000000000111100000000000001010000 &
b111111110111010000000000111100000000000001010000 +
b1000 (
b100 -
b111111110111010000000000111100000000000001010000 3
b111111110111010000000000111100000000000001010000 6
1#
#100000
0#
0$
#105000
b111111110111010000000000101000000000000001010000 4
b1001 (
1#
#110000
0#
1$
b100 7
#115000
b101 .
b111111110111010000000000101000000000000001010000 !
b111111110111010000000000101000000000000001010000 &
b111111110111010000000000101000000000000001010000 +
b1010 (
b101 -
b111111110111010000000000101000000000000001010000 3
b111111110111010000000000101000000000000001010000 6
1#
#120000
0#
0$
#125000
b111111110010010000000000111100000000000001010000 4
b1011 (
1#
#130000
0#
1$
b101 7
#135000
b110 .
b111111110010010000000000111100000000000001010000 !
b111111110010010000000000111100000000000001010000 &
b111111110010010000000000111100000000000001010000 +
b1100 (
b110 -
b111111110010010000000000111100000000000001010000 3
b111111110010010000000000111100000000000001010000 6
1#
#140000
0#
0$
#145000
b111111110010010000000000101000000000000001010000 4
b1101 (
1#
#150000
0#
1$
b110 7
#155000
b111 .
b111111110010010000000000101000000000000001010000 !
b111111110010010000000000101000000000000001010000 &
b111111110010010000000000101000000000000001010000 +
b1110 (
b111 -
b111111110010010000000000101000000000000001010000 3
b111111110010010000000000101000000000000001010000 6
1#
#160000
0#
0$
#165000
b111111110111010000000000101000000000000001010000 4
b1111 (
1#
#170000
0#
1$
b111 7
#175000
b1000 .
b111111110111010000000000101000000000000001010000 !
b111111110111010000000000101000000000000001010000 &
b111111110111010000000000101000000000000001010000 +
b10000 (
b1000 -
b111111110111010000000000101000000000000001010000 3
b111111110111010000000000101000000000000001010000 6
1#
#180000
0#
0$
#185000
b111111110111010000000000101000000000000000000000 4
b10001 (
1#
#190000
0#
1$
b1000 7
#195000
b1001 .
b111111110111010000000000101000000000000000000000 !
b111111110111010000000000101000000000000000000000 &
b111111110111010000000000101000000000000000000000 +
b10010 (
b1001 -
b111111110111010000000000101000000000000000000000 3
b111111110111010000000000101000000000000000000000 6
1#
#200000
0#
0$
#205000
b111111110010010000000000101000000000000000000000 4
b10011 (
1#
#210000
0#
1$
b1001 7
#215000
b1010 .
b111111110010010000000000101000000000000000000000 !
b111111110010010000000000101000000000000000000000 &
b111111110010010000000000101000000000000000000000 +
b10100 (
b1010 -
b111111110010010000000000101000000000000000000000 3
b111111110010010000000000101000000000000000000000 6
1#
#220000
0#
0$
#225000
b111111110111010000000000111100000000000000000000 4
b10101 (
1#
#230000
0#
1$
b1010 7
#235000
b1011 .
b111111110111010000000000111100000000000000000000 !
b111111110111010000000000111100000000000000000000 &
b111111110111010000000000111100000000000000000000 +
b10110 (
b1011 -
b111111110111010000000000111100000000000000000000 3
b111111110111010000000000111100000000000000000000 6
1#
#240000
0#
0$
#245000
b111111110111010000000000101000000000000000000000 4
b10111 (
1#
#250000
0#
1$
b1011 7
#255000
b1100 .
b111111110111010000000000101000000000000000000000 !
b111111110111010000000000101000000000000000000000 &
b111111110111010000000000101000000000000000000000 +
b11000 (
b1100 -
b111111110111010000000000101000000000000000000000 3
b111111110111010000000000101000000000000000000000 6
1#
#260000
0#
0$
#265000
b111111110111010000000000111100000000000000000000 4
b11001 (
1#
#270000
0#
1$
b1100 7
#275000
b1101 .
b111111110111010000000000111100000000000000000000 !
b111111110111010000000000111100000000000000000000 &
b111111110111010000000000111100000000000000000000 +
b11010 (
b1101 -
b111111110111010000000000111100000000000000000000 3
b111111110111010000000000111100000000000000000000 6
1#
#280000
0#
0$
#285000
b111111110010010000000000101000000000000000000000 4
b11011 (
1#
#290000
0#
1$
b1101 7
#295000
b1110 .
b111111110010010000000000101000000000000000000000 !
b111111110010010000000000101000000000000000000000 &
b111111110010010000000000101000000000000000000000 +
b11100 (
b1110 -
b111111110010010000000000101000000000000000000000 3
b111111110010010000000000101000000000000000000000 6
1#
#300000
0#
0$
#305000
b111111110010010000000000111100000000000000000000 4
b11101 (
1#
#310000
0#
1$
b1110 7
#315000
b1111 .
b111111110010010000000000111100000000000000000000 !
b111111110010010000000000111100000000000000000000 &
b111111110010010000000000111100000000000000000000 +
b11110 (
b1111 -
b111111110010010000000000111100000000000000000000 3
b111111110010010000000000111100000000000000000000 6
1#
#320000
0#
0$
#325000
b111111110111010000000000111100000000000000000000 4
b11111 (
1#
#330000
0#
1$
b1111 7
#335000
b10000 .
b111111110111010000000000111100000000000000000000 !
b111111110111010000000000111100000000000000000000 &
b111111110111010000000000111100000000000000000000 +
b100000 (
b10000 -
b111111110111010000000000111100000000000000000000 3
b111111110111010000000000111100000000000000000000 6
1#
#340000
0#
0$
#345000
b111111110010010000000000101000000000000001010000 4
b100001 (
1#
#350000
0#
1$
b10000 7
#355000
b10001 .
b111111110010010000000000101000000000000001010000 !
b111111110010010000000000101000000000000001010000 &
b111111110010010000000000101000000000000001010000 +
b100010 (
b10001 -
b111111110010010000000000101000000000000001010000 3
b111111110010010000000000101000000000000001010000 6
1#
#360000
0#
0$
#365000
b111111110010010000000000101000000000000000000000 4
b100011 (
1#
#370000
0#
1$
b10001 7
#375000
b10010 .
b111111110010010000000000101000000000000000000000 !
b111111110010010000000000101000000000000000000000 &
b111111110010010000000000101000000000000000000000 +
b100100 (
b10010 -
b111111110010010000000000101000000000000000000000 3
b111111110010010000000000101000000000000000000000 6
1#
#380000
0#
0$
#385000
b111111110111010000000000101000000000000001010000 4
b100101 (
1#
#390000
0#
1$
b10010 7
#395000
b10011 .
b111111110111010000000000101000000000000001010000 !
b111111110111010000000000101000000000000001010000 &
b111111110111010000000000101000000000000001010000 +
b100110 (
b10011 -
b111111110111010000000000101000000000000001010000 3
b111111110111010000000000101000000000000001010000 6
1#
#400000
0#
0$
#405000
b111111110010010000000000101000000000000001010000 4
b100111 (
1#
#410000
0#
1$
b10011 7
#415000
b10100 .
b111111110010010000000000101000000000000001010000 !
b111111110010010000000000101000000000000001010000 &
b111111110010010000000000101000000000000001010000 +
b101000 (
b10100 -
b111111110010010000000000101000000000000001010000 3
b111111110010010000000000101000000000000001010000 6
1#
#420000
0#
0$
#425000
b111111110111010000000000101000000000000001010000 4
b101001 (
1#
#430000
0#
1$
b10100 7
#435000
b10101 .
b111111110111010000000000101000000000000001010000 !
b111111110111010000000000101000000000000001010000 &
b111111110111010000000000101000000000000001010000 +
b101010 (
b10101 -
b111111110111010000000000101000000000000001010000 3
b111111110111010000000000101000000000000001010000 6
1#
#440000
0#
0$
#445000
b111111110010010000000000101000000000000000000000 4
b101011 (
1#
#450000
0#
1$
b10101 7
#455000
b10110 .
b111111110010010000000000101000000000000000000000 !
b111111110010010000000000101000000000000000000000 &
b111111110010010000000000101000000000000000000000 +
b101100 (
b10110 -
b111111110010010000000000101000000000000000000000 3
b111111110010010000000000101000000000000000000000 6
1#
#460000
0#
0$
#465000
b111111110111010000000000101000000000000000000000 4
b101101 (
1#
#470000
0#
1$
b10110 7
#475000
b10111 .
b111111110111010000000000101000000000000000000000 !
b111111110111010000000000101000000000000000000000 &
b111111110111010000000000101000000000000000000000 +
b101110 (
b10111 -
b111111110111010000000000101000000000000000000000 3
b111111110111010000000000101000000000000000000000 6
1#
#480000
0#
0$
#485000
b111111110111010000000000101000000000000001010000 4
b101111 (
1#
#490000
0#
1$
b10111 7
#495000
b11000 .
b111111110111010000000000101000000000000001010000 !
b111111110111010000000000101000000000000001010000 &
b111111110111010000000000101000000000000001010000 +
b110000 (
b11000 -
b111111110111010000000000101000000000000001010000 3
b111111110111010000000000101000000000000001010000 6
1#
#500000
0#
0$
#505000
b111111110010010000000000111100000000000001010000 4
b110001 (
1#
#510000
0#
1$
b11000 7
#515000
b11001 .
b111111110010010000000000111100000000000001010000 !
b111111110010010000000000111100000000000001010000 &
b111111110010010000000000111100000000000001010000 +
b110010 (
b11001 -
b111111110010010000000000111100000000000001010000 3
b111111110010010000000000111100000000000001010000 6
1#
#520000
0#
0$
#525000
b111111110010010000000000111100000000000000000000 4
b110011 (
1#
#530000
0#
1$
b11001 7
#535000
b11010 .
b111111110010010000000000111100000000000000000000 !
b111111110010010000000000111100000000000000000000 &
b111111110010010000000000111100000000000000000000 +
b110100 (
b11010 -
b111111110010010000000000111100000000000000000000 3
b111111110010010000000000111100000000000000000000 6
1#
#540000
0#
0$
#545000
b111111110010010000000000101000000000000001010000 4
b110101 (
1#
#550000
0#
1$
b11010 7
#555000
b11011 .
b111111110010010000000000101000000000000001010000 !
b111111110010010000000000101000000000000001010000 &
b111111110010010000000000101000000000000001010000 +
b110110 (
b11011 -
b111111110010010000000000101000000000000001010000 3
b111111110010010000000000101000000000000001010000 6
1#
#560000
0#
0$
#565000
b111111110010010000000000111100000000000001010000 4
b110111 (
1#
#570000
0#
1$
b11011 7
#575000
b11100 .
b111111110010010000000000111100000000000001010000 !
b111111110010010000000000111100000000000001010000 &
b111111110010010000000000111100000000000001010000 +
b111000 (
b11100 -
b111111110010010000000000111100000000000001010000 3
b111111110010010000000000111100000000000001010000 6
1#
#580000
0#
0$
#585000
b111111110010010000000000101000000000000001010000 4
b111001 (
1#
#590000
0#
1$
b11100 7
#595000
b11101 .
b111111110010010000000000101000000000000001010000 !
b111111110010010000000000101000000000000001010000 &
b111111110010010000000000101000000000000001010000 +
b111010 (
b11101 -
b111111110010010000000000101000000000000001010000 3
b111111110010010000000000101000000000000001010000 6
1#
#600000
0#
0$
#605000
b111111110010010000000000111100000000000000000000 4
b111011 (
1#
#610000
0#
1$
b11101 7
#615000
b11110 .
b111111110010010000000000111100000000000000000000 !
b111111110010010000000000111100000000000000000000 &
b111111110010010000000000111100000000000000000000 +
b111100 (
b11110 -
b111111110010010000000000111100000000000000000000 3
b111111110010010000000000111100000000000000000000 6
1#
#620000
0#
0$
#625000
b111111110010010000000000101000000000000000000000 4
b111101 (
1#
#630000
0#
1$
b11110 7
#635000
b11111 .
b111111110010010000000000101000000000000000000000 !
b111111110010010000000000101000000000000000000000 &
b111111110010010000000000101000000000000000000000 +
b111110 (
b11111 -
b111111110010010000000000101000000000000000000000 3
b111111110010010000000000101000000000000000000000 6
1#
#640000
0#
0$
#645000
b111111110010010000000000101000000000000001010000 4
b111111 (
1#
#650000
0#
1$
b11111 7
#655000
b100000 .
b111111110010010000000000101000000000000001010000 !
b111111110010010000000000101000000000000001010000 &
b111111110010010000000000101000000000000001010000 +
b1000000 (
b100000 -
b111111110010010000000000101000000000000001010000 3
b111111110010010000000000101000000000000001010000 6
1#
#660000
0#
0$
#665000
b111111110111010000000000111100000000000001010000 4
b1000001 (
1#
#670000
0#
1$
b100000 7
#675000
b100001 .
b111111110111010000000000111100000000000001010000 !
b111111110111010000000000111100000000000001010000 &
b111111110111010000000000111100000000000001010000 +
b1000010 (
b100001 -
b111111110111010000000000111100000000000001010000 3
b111111110111010000000000111100000000000001010000 6
1#
#680000
0#
0$
#685000
b111111110111010000000000111100000000000000000000 4
b1000011 (
1#
#690000
0#
1$
b100001 7
#695000
b100010 .
b111111110111010000000000111100000000000000000000 !
b111111110111010000000000111100000000000000000000 &
b111111110111010000000000111100000000000000000000 +
b1000100 (
b100010 -
b111111110111010000000000111100000000000000000000 3
b111111110111010000000000111100000000000000000000 6
1#
#700000
0#
0$
#705000
b111111110010010000000000111100000000000001010000 4
b1000101 (
1#
#710000
0#
1$
b100010 7
#715000
b100011 .
b111111110010010000000000111100000000000001010000 !
b111111110010010000000000111100000000000001010000 &
b111111110010010000000000111100000000000001010000 +
b1000110 (
b100011 -
b111111110010010000000000111100000000000001010000 3
b111111110010010000000000111100000000000001010000 6
1#
#720000
0#
0$
#725000
b111111110111010000000000111100000000000001010000 4
b1000111 (
1#
#730000
0#
1$
b100011 7
#735000
b100100 .
b111111110111010000000000111100000000000001010000 !
b111111110111010000000000111100000000000001010000 &
b111111110111010000000000111100000000000001010000 +
b1001000 (
b100100 -
b111111110111010000000000111100000000000001010000 3
b111111110111010000000000111100000000000001010000 6
1#
#740000
0#
0$
#745000
b111111110010010000000000111100000000000001010000 4
b1001001 (
1#
#750000
0#
1$
b100100 7
#755000
b100101 .
b111111110010010000000000111100000000000001010000 !
b111111110010010000000000111100000000000001010000 &
b111111110010010000000000111100000000000001010000 +
b1001010 (
b100101 -
b111111110010010000000000111100000000000001010000 3
b111111110010010000000000111100000000000001010000 6
1#
#760000
0#
0$
#765000
b111111110111010000000000111100000000000000000000 4
b1001011 (
1#
#770000
0#
1$
b100101 7
#775000
b100110 .
b111111110111010000000000111100000000000000000000 !
b111111110111010000000000111100000000000000000000 &
b111111110111010000000000111100000000000000000000 +
b1001100 (
b100110 -
b111111110111010000000000111100000000000000000000 3
b111111110111010000000000111100000000000000000000 6
1#
#780000
0#
0$
#785000
b111111110010010000000000111100000000000000000000 4
b1001101 (
1#
#790000
0#
1$
b100110 7
#795000
b100111 .
b111111110010010000000000111100000000000000000000 !
b111111110010010000000000111100000000000000000000 &
b111111110010010000000000111100000000000000000000 +
b1001110 (
b100111 -
b111111110010010000000000111100000000000000000000 3
b111111110010010000000000111100000000000000000000 6
1#
#800000
0#
0$
#805000
b111111110010010000000000111100000000000001010000 4
b1001111 (
1#
#810000
0#
1$
b100111 7
#815000
b101000 .
b111111110010010000000000111100000000000001010000 !
b111111110010010000000000111100000000000001010000 &
b111111110010010000000000111100000000000001010000 +
b1010000 (
b101000 -
b111111110010010000000000111100000000000001010000 3
b111111110010010000000000111100000000000001010000 6
1#
#820000
0#
0$
#825000
b111111110111010000000000101000000000000001010000 4
b1010001 (
1#
#830000
0#
1$
b101000 7
#835000
b101001 .
b111111110111010000000000101000000000000001010000 !
b111111110111010000000000101000000000000001010000 &
b111111110111010000000000101000000000000001010000 +
b1010010 (
b101001 -
b111111110111010000000000101000000000000001010000 3
b111111110111010000000000101000000000000001010000 6
1#
#840000
0#
0$
#845000
b111111110111010000000000101000000000000000000000 4
b1010011 (
1#
#850000
0#
1$
b101001 7
#855000
b101010 .
b111111110111010000000000101000000000000000000000 !
b111111110111010000000000101000000000000000000000 &
b111111110111010000000000101000000000000000000000 +
b1010100 (
b101010 -
b111111110111010000000000101000000000000000000000 3
b111111110111010000000000101000000000000000000000 6
1#
#860000
0#
0$
#865000
b111111110111010000000000111100000000000001010000 4
b1010101 (
1#
#870000
0#
1$
b101010 7
#875000
b101011 .
b111111110111010000000000111100000000000001010000 !
b111111110111010000000000111100000000000001010000 &
b111111110111010000000000111100000000000001010000 +
b1010110 (
b101011 -
b111111110111010000000000111100000000000001010000 3
b111111110111010000000000111100000000000001010000 6
1#
#880000
0#
0$
#885000
b111111110111010000000000101000000000000001010000 4
b1010111 (
1#
#890000
0#
1$
b101011 7
#895000
b101100 .
b111111110111010000000000101000000000000001010000 !
b111111110111010000000000101000000000000001010000 &
b111111110111010000000000101000000000000001010000 +
b1011000 (
b101100 -
b111111110111010000000000101000000000000001010000 3
b111111110111010000000000101000000000000001010000 6
1#
#900000
0#
0$
#905000
b111111110111010000000000111100000000000001010000 4
b1011001 (
1#
#910000
0#
1$
b101100 7
#915000
b101101 .
b111111110111010000000000111100000000000001010000 !
b111111110111010000000000111100000000000001010000 &
b111111110111010000000000111100000000000001010000 +
b1011010 (
b101101 -
b111111110111010000000000111100000000000001010000 3
b111111110111010000000000111100000000000001010000 6
1#
#920000
0#
0$
#925000
b111111110111010000000000101000000000000000000000 4
b1011011 (
1#
#930000
0#
1$
b101101 7
#935000
b101110 .
b111111110111010000000000101000000000000000000000 !
b111111110111010000000000101000000000000000000000 &
b111111110111010000000000101000000000000000000000 +
b1011100 (
b101110 -
b111111110111010000000000101000000000000000000000 3
b111111110111010000000000101000000000000000000000 6
1#
#940000
0#
0$
#945000
b111111110111010000000000111100000000000000000000 4
b1011101 (
1#
#950000
0#
1$
b101110 7
#955000
b101111 .
b111111110111010000000000111100000000000000000000 !
b111111110111010000000000111100000000000000000000 &
b111111110111010000000000111100000000000000000000 +
b1011110 (
b101111 -
b111111110111010000000000111100000000000000000000 3
b111111110111010000000000111100000000000000000000 6
1#
#960000
0#
0$
#965000
b111111110111010000000000111100000000000001010000 4
b1011111 (
1#
#970000
0#
1$
b101111 7
#975000
b0 .
b111111110111010000000000111100000000000001010000 !
b111111110111010000000000111100000000000001010000 &
b111111110111010000000000111100000000000001010000 +
b1100000 (
b0 -
b111111110111010000000000111100000000000001010000 3
b111111110111010000000000111100000000000001010000 6
1#
#980000
0#
0$
#985000
b1100001 (
1#
#990000
0#
1$
b110000 7
#995000
b1 .
b1100010 (
b1 -
1#
#1000000
0#
0$
#1005000
b111111110010010000000000111100000000000001010000 4
b1100011 (
1#
#1010000
0#
1$
b110001 7
#1015000
b10 .
b111111110010010000000000111100000000000001010000 !
b111111110010010000000000111100000000000001010000 &
b111111110010010000000000111100000000000001010000 +
b1100100 (
b10 -
b111111110010010000000000111100000000000001010000 3
b111111110010010000000000111100000000000001010000 6
1#
#1020000
0#
0$
#1025000
b111111110111010000000000101000000000000001010000 4
b1100101 (
1#
#1030000
0#
1$
b110010 7
#1035000
b11 .
b111111110111010000000000101000000000000001010000 !
b111111110111010000000000101000000000000001010000 &
b111111110111010000000000101000000000000001010000 +
b1100110 (
b11 -
b111111110111010000000000101000000000000001010000 3
b111111110111010000000000101000000000000001010000 6
1#
#1040000
0#
0$
#1045000
b111111110111010000000000111100000000000001010000 4
b1100111 (
1#
#1050000
0#
1$
b110011 7
#1055000
b100 .
b111111110111010000000000111100000000000001010000 !
b111111110111010000000000111100000000000001010000 &
b111111110111010000000000111100000000000001010000 +
b1101000 (
b100 -
b111111110111010000000000111100000000000001010000 3
b111111110111010000000000111100000000000001010000 6
1#
#1060000
0#
0$
#1065000
b111111110111010000000000101000000000000001010000 4
b1101001 (
1#
#1070000
0#
1$
b110100 7
#1075000
b101 .
b111111110111010000000000101000000000000001010000 !
b111111110111010000000000101000000000000001010000 &
b111111110111010000000000101000000000000001010000 +
b1101010 (
b101 -
b111111110111010000000000101000000000000001010000 3
b111111110111010000000000101000000000000001010000 6
1#
#1080000
0#
0$
#1085000
b111111110010010000000000111100000000000001010000 4
b1101011 (
1#
#1090000
0#
1$
b110101 7
#1095000
b110 .
b111111110010010000000000111100000000000001010000 !
b111111110010010000000000111100000000000001010000 &
b111111110010010000000000111100000000000001010000 +
b1101100 (
b110 -
b111111110010010000000000111100000000000001010000 3
b111111110010010000000000111100000000000001010000 6
1#
#1100000
0#
0$
#1105000
b111111110010010000000000101000000000000001010000 4
b1101101 (
1#
#1110000
0#
1$
b110110 7
#1115000
b111 .
b111111110010010000000000101000000000000001010000 !
b111111110010010000000000101000000000000001010000 &
b111111110010010000000000101000000000000001010000 +
b1101110 (
b111 -
b111111110010010000000000101000000000000001010000 3
b111111110010010000000000101000000000000001010000 6
1#
#1120000
0#
0$
#1125000
b111111110111010000000000101000000000000001010000 4
b1101111 (
1#
#1130000
0#
1$
b110111 7
#1135000
b1000 .
b111111110111010000000000101000000000000001010000 !
b111111110111010000000000101000000000000001010000 &
b111111110111010000000000101000000000000001010000 +
b1110000 (
b1000 -
b111111110111010000000000101000000000000001010000 3
b111111110111010000000000101000000000000001010000 6
1#
#1140000
0#
0$
#1145000
b111111110111010000000000101000000000000000000000 4
b1110001 (
1#
#1150000
0#
1$
b111000 7
#1155000
b1001 .
b111111110111010000000000101000000000000000000000 !
b111111110111010000000000101000000000000000000000 &
b111111110111010000000000101000000000000000000000 +
b1110010 (
b1001 -
b111111110111010000000000101000000000000000000000 3
b111111110111010000000000101000000000000000000000 6
1#
#1160000
0#
0$
#1165000
b111111110010010000000000101000000000000000000000 4
b1110011 (
1#
#1170000
0#
1$
b111001 7
#1175000
b1010 .
b111111110010010000000000101000000000000000000000 !
b111111110010010000000000101000000000000000000000 &
b111111110010010000000000101000000000000000000000 +
b1110100 (
b1010 -
b111111110010010000000000101000000000000000000000 3
b111111110010010000000000101000000000000000000000 6
1#
#1180000
0#
0$
#1185000
b111111110111010000000000111100000000000000000000 4
b1110101 (
1#
#1190000
0#
1$
b111010 7
#1195000
b1011 .
b111111110111010000000000111100000000000000000000 !
b111111110111010000000000111100000000000000000000 &
b111111110111010000000000111100000000000000000000 +
b1110110 (
b1011 -
b111111110111010000000000111100000000000000000000 3
b111111110111010000000000111100000000000000000000 6
1#
#1200000
0#
0$
#1205000
b111111110111010000000000101000000000000000000000 4
b1110111 (
1#
#1210000
0#
1$
b111011 7
#1215000
b1100 .
b111111110111010000000000101000000000000000000000 !
b111111110111010000000000101000000000000000000000 &
b111111110111010000000000101000000000000000000000 +
b1111000 (
b1100 -
b111111110111010000000000101000000000000000000000 3
b111111110111010000000000101000000000000000000000 6
1#
#1220000
0#
0$
#1225000
b111111110111010000000000111100000000000000000000 4
b1111001 (
1#
#1230000
0#
1$
b111100 7
#1235000
b1101 .
b111111110111010000000000111100000000000000000000 !
b111111110111010000000000111100000000000000000000 &
b111111110111010000000000111100000000000000000000 +
b1111010 (
b1101 -
b111111110111010000000000111100000000000000000000 3
b111111110111010000000000111100000000000000000000 6
1#
#1240000
0#
0$
#1245000
b111111110010010000000000101000000000000000000000 4
b1111011 (
1#
#1250000
0#
1$
b111101 7
#1255000
b1110 .
b111111110010010000000000101000000000000000000000 !
b111111110010010000000000101000000000000000000000 &
b111111110010010000000000101000000000000000000000 +
b1111100 (
b1110 -
b111111110010010000000000101000000000000000000000 3
b111111110010010000000000101000000000000000000000 6
1#
#1260000
0#
0$
#1265000
b111111110010010000000000111100000000000000000000 4
b1111101 (
1#
#1270000
0#
1$
b111110 7
#1275000
b1111 .
b111111110010010000000000111100000000000000000000 !
b111111110010010000000000111100000000000000000000 &
b111111110010010000000000111100000000000000000000 +
b1111110 (
b1111 -
b111111110010010000000000111100000000000000000000 3
b111111110010010000000000111100000000000000000000 6
1#
#1280000
0#
0$
#1285000
b111111110111010000000000111100000000000000000000 4
b1111111 (
1#
#1290000
0#
1$
b111111 7
#1295000
b10000 .
b111111110111010000000000111100000000000000000000 !
b111111110111010000000000111100000000000000000000 &
b111111110111010000000000111100000000000000000000 +
b10000000 (
b10000 -
b111111110111010000000000111100000000000000000000 3
b111111110111010000000000111100000000000000000000 6
1#
#1300000
0#
0$
#1305000
b111111110010010000000000101000000000000001010000 4
b10000001 (
1#
#1310000
0#
1$
b1000000 7
#1315000
b10001 .
b111111110010010000000000101000000000000001010000 !
b111111110010010000000000101000000000000001010000 &
b111111110010010000000000101000000000000001010000 +
b10000010 (
b10001 -
b111111110010010000000000101000000000000001010000 3
b111111110010010000000000101000000000000001010000 6
1#
#1320000
0#
0$
#1325000
b111111110010010000000000101000000000000000000000 4
b10000011 (
1#
#1330000
0#
1$
b1000001 7
#1335000
b10010 .
b111111110010010000000000101000000000000000000000 !
b111111110010010000000000101000000000000000000000 &
b111111110010010000000000101000000000000000000000 +
b10000100 (
b10010 -
b111111110010010000000000101000000000000000000000 3
b111111110010010000000000101000000000000000000000 6
1#
#1340000
0#
0$
#1345000
b111111110111010000000000101000000000000001010000 4
b10000101 (
1#
#1350000
0#
1$
b1000010 7
#1355000
b10011 .
b111111110111010000000000101000000000000001010000 !
b111111110111010000000000101000000000000001010000 &
b111111110111010000000000101000000000000001010000 +
b10000110 (
b10011 -
b111111110111010000000000101000000000000001010000 3
b111111110111010000000000101000000000000001010000 6
1#
#1360000
0#
0$
#1365000
b111111110010010000000000101000000000000001010000 4
b10000111 (
1#
#1370000
0#
1$
b1000011 7
#1375000
b10100 .
b111111110010010000000000101000000000000001010000 !
b111111110010010000000000101000000000000001010000 &
b111111110010010000000000101000000000000001010000 +
b10001000 (
b10100 -
b111111110010010000000000101000000000000001010000 3
b111111110010010000000000101000000000000001010000 6
1#
#1380000
0#
0$
#1385000
b111111110111010000000000101000000000000001010000 4
b10001001 (
1#
#1390000
0#
1$
b1000100 7
#1395000
b10101 .
b111111110111010000000000101000000000000001010000 !
b111111110111010000000000101000000000000001010000 &
b111111110111010000000000101000000000000001010000 +
b10001010 (
b10101 -
b111111110111010000000000101000000000000001010000 3
b111111110111010000000000101000000000000001010000 6
1#
#1400000
0#
0$
#1405000
b111111110010010000000000101000000000000000000000 4
b10001011 (
1#
#1410000
0#
1$
b1000101 7
#1415000
b10110 .
b111111110010010000000000101000000000000000000000 !
b111111110010010000000000101000000000000000000000 &
b111111110010010000000000101000000000000000000000 +
b10001100 (
b10110 -
b111111110010010000000000101000000000000000000000 3
b111111110010010000000000101000000000000000000000 6
1#
#1420000
0#
0$
#1425000
b111111110111010000000000101000000000000000000000 4
b10001101 (
1#
#1430000
0#
1$
b1000110 7
#1435000
b10111 .
b111111110111010000000000101000000000000000000000 !
b111111110111010000000000101000000000000000000000 &
b111111110111010000000000101000000000000000000000 +
b10001110 (
b10111 -
b111111110111010000000000101000000000000000000000 3
b111111110111010000000000101000000000000000000000 6
1#
#1440000
0#
0$
#1445000
b111111110111010000000000101000000000000001010000 4
b10001111 (
1#
#1450000
0#
1$
b1000111 7
#1455000
b11000 .
b111111110111010000000000101000000000000001010000 !
b111111110111010000000000101000000000000001010000 &
b111111110111010000000000101000000000000001010000 +
b10010000 (
b11000 -
b111111110111010000000000101000000000000001010000 3
b111111110111010000000000101000000000000001010000 6
1#
#1460000
0#
0$
#1465000
b111111110010010000000000111100000000000001010000 4
b10010001 (
1#
#1470000
0#
1$
b1001000 7
#1475000
b11001 .
b111111110010010000000000111100000000000001010000 !
b111111110010010000000000111100000000000001010000 &
b111111110010010000000000111100000000000001010000 +
b10010010 (
b11001 -
b111111110010010000000000111100000000000001010000 3
b111111110010010000000000111100000000000001010000 6
1#
#1480000
0#
0$
#1485000
b111111110010010000000000111100000000000000000000 4
b10010011 (
1#
#1490000
0#
1$
b1001001 7
#1495000
b11010 .
b111111110010010000000000111100000000000000000000 !
b111111110010010000000000111100000000000000000000 &
b111111110010010000000000111100000000000000000000 +
b10010100 (
b11010 -
b111111110010010000000000111100000000000000000000 3
b111111110010010000000000111100000000000000000000 6
1#
#1500000
0#
0$
#1505000
b111111110010010000000000101000000000000001010000 4
b10010101 (
1#
#1510000
0#
1$
b1001010 7
#1515000
b11011 .
b111111110010010000000000101000000000000001010000 !
b111111110010010000000000101000000000000001010000 &
b111111110010010000000000101000000000000001010000 +
b10010110 (
b11011 -
b111111110010010000000000101000000000000001010000 3
b111111110010010000000000101000000000000001010000 6
1#
#1520000
0#
0$
#1525000
b111111110010010000000000111100000000000001010000 4
b10010111 (
1#
#1530000
0#
1$
b1001011 7
#1535000
b11100 .
b111111110010010000000000111100000000000001010000 !
b111111110010010000000000111100000000000001010000 &
b111111110010010000000000111100000000000001010000 +
b10011000 (
b11100 -
b111111110010010000000000111100000000000001010000 3
b111111110010010000000000111100000000000001010000 6
1#
