sub/load_points.vcd
$date
	Sun Dec 11 14:25:14 2022
$end
$version
	Icarus Verilog
$end
$timescale
	1ps
$end
$scope module load_points_tb $end
$var wire 48 ! point_scalars [47:0] $end
$var wire 4 " point_color [3:0] $end
$var reg 1 # clk_in $end
$var reg 1 $ next_point $end
$var reg 1 % rst_in $end
$scope module uut $end
$var wire 1 # clk_in $end
$var wire 1 $ next_point $end
$var wire 1 % rst_in $end
$var wire 48 & point_scalars [47:0] $end
$var wire 4 ' point_color [3:0] $end
$var reg 6 ( index [5:0] $end
$scope module image $end
$var wire 6 ) addra [5:0] $end
$var wire 1 # clka $end
$var wire 52 * dina [51:0] $end
$var wire 1 + ena $end
$var wire 1 , regcea $end
$var wire 1 % rsta $end
$var wire 1 - wea $end
$var wire 52 . douta [51:0] $end
$var reg 52 / ram_data [51:0] $end
$scope function clogb2 $end
$var integer 32 0 depth [31:0] $end
$upscope $end
$scope begin output_register $end
$var reg 52 1 douta_reg [51:0] $end
$upscope $end
$scope begin use_init_file $end
$upscope $end
$upscope $end
$upscope $end
$scope begin $ivl_for_loop0 $end
$var integer 32 2 i [31:0] $end
$upscope $end
$upscope $end
$enddefinitions $end
#0
$dumpvars
b0 2
b0 1
bx 0
b0 /
b0 .
0-
1,
1+
b0 *
bx )
bx (
b0 '
b0 &
0%
x$
0#
b0 "
b0 !
$end
#5000
bx /
1#
#10000
0#
1%
#15000
b0 (
b0 )
1#
#20000
0#
0%
#25000
bx !
bx &
bx "
bx '
bx .
bx 1
b1110111010000000000111100000000000001010000000000 /
1#
#30000
0#
1$
#35000
b110111010000000000111100000000000001010000000000 !
b110111010000000000111100000000000001010000000000 &
b1 "
b1 '
b1 (
b1 )
b1110111010000000000111100000000000001010000000000 .
b1110111010000000000111100000000000001010000000000 1
1#
#40000
0#
0$
#45000
b1110010010000000000111100000000000001010000000000 /
1#
#50000
0#
1$
b1 2
#55000
b110010010000000000111100000000000001010000000000 !
b110010010000000000111100000000000001010000000000 &
b10 (
b10 )
b1110010010000000000111100000000000001010000000000 .
b1110010010000000000111100000000000001010000000000 1
1#
#60000
0#
0$
#65000
b1110111010000000000101000000000000001010000000000 /
1#
#70000
0#
1$
b10 2
#75000
b110111010000000000101000000000000001010000000000 !
b110111010000000000101000000000000001010000000000 &
b11 (
b11 )
b1110111010000000000101000000000000001010000000000 .
b1110111010000000000101000000000000001010000000000 1
1#
#80000
0#
0$
#85000
b110111010000000000111100000000000001010000000000 /
1#
#90000
0#
1$
b11 2
#95000
b110111010000000000111100000000000001010000000000 !
b110111010000000000111100000000000001010000000000 &
b0 "
b0 '
b100 (
b100 )
b110111010000000000111100000000000001010000000000 .
b110111010000000000111100000000000001010000000000 1
1#
#100000
0#
0$
#105000
b1110111010000000000101000000000000001010000000000 /
1#
#110000
0#
1$
b100 2
#115000
b110111010000000000101000000000000001010000000000 !
b110111010000000000101000000000000001010000000000 &
b1 "
b1 '
b101 (
b101 )
b1110111010000000000101000000000000001010000000000 .
b1110111010000000000101000000000000001010000000000 1
1#
#120000
0#
0$
#125000
b1110010010000000000111100000000000001010000000000 /
1#
#130000
0#
1$
b101 2
#135000
b110010010000000000111100000000000001010000000000 !
b110010010000000000111100000000000001010000000000 &
b110 (
b110 )
b1110010010000000000111100000000000001010000000000 .
b1110010010000000000111100000000000001010000000000 1
1#
#140000
0#
0$
#145000
b1110010010000000000101000000000000001010000000000 /
1#
#150000
0#
1$
b110 2
#155000
b110010010000000000101000000000000001010000000000 !
b110010010000000000101000000000000001010000000000 &
b111 (
b111 )
b1110010010000000000101000000000000001010000000000 .
b1110010010000000000101000000000000001010000000000 1
1#
#160000
0#
0$
#165000
b110111010000000000101000000000000001010000000000 /
1#
#170000
0#
1$
b111 2
#175000
b110111010000000000101000000000000001010000000000 !
b110111010000000000101000000000000001010000000000 &
b0 "
b0 '
b1000 (
b1000 )
b110111010000000000101000000000000001010000000000 .
b110111010000000000101000000000000001010000000000 1
1#
#180000
0#
0$
#185000
b1110111010000000000101000000000000000000000000000 /
1#
#190000
0#
1$
b1000 2
#195000
b110111010000000000101000000000000000000000000000 !
b110111010000000000101000000000000000000000000000 &
b1 "
b1 '
b1001 (
b1001 )
b1110111010000000000101000000000000000000000000000 .
b1110111010000000000101000000000000000000000000000 1
1#
#200000
0#
0$
#205000
b1110010010000000000101000000000000000000000000000 /
1#
#210000
0#
1$
b1001 2
#215000
b110010010000000000101000000000000000000000000000 !
b110010010000000000101000000000000000000000000000 &
b1010 (
b1010 )
b1110010010000000000101000000000000000000000000000 .
b1110010010000000000101000000000000000000000000000 1
1#
#220000
0#
0$
#225000
b1110111010000000000111100000000000000000000000000 /
1#
#230000
0#
1$
b1010 2
#235000
b110111010000000000111100000000000000000000000000 !
b110111010000000000111100000000000000000000000000 &
b1011 (
b1011 )
b1110111010000000000111100000000000000000000000000 .
b1110111010000000000111100000000000000000000000000 1
1#
#240000
0#
0$
#245000
b110111010000000000101000000000000000000000000000 /
1#
#250000
0#
1$
b1011 2
#255000
b110111010000000000101000000000000000000000000000 !
b110111010000000000101000000000000000000000000000 &
b0 "
b0 '
b1100 (
b1100 )
b110111010000000000101000000000000000000000000000 .
b110111010000000000101000000000000000000000000000 1
1#
#260000
0#
0$
#265000
b1110111010000000000111100000000000000000000000000 /
1#
#270000
0#
1$
b1100 2
#275000
b110111010000000000111100000000000000000000000000 !
b110111010000000000111100000000000000000000000000 &
b1 "
b1 '
b1101 (
b1101 )
b1110111010000000000111100000000000000000000000000 .
b1110111010000000000111100000000000000000000000000 1
1#
#280000
0#
0$
#285000
b1110010010000000000101000000000000000000000000000 /
1#
#290000
0#
1$
b1101 2
#295000
b110010010000000000101000000000000000000000000000 !
b110010010000000000101000000000000000000000000000 &
b1110 (
b1110 )
b1110010010000000000101000000000000000000000000000 .
b1110010010000000000101000000000000000000000000000 1
1#
#300000
0#
0$
#305000
b1110010010000000000111100000000000000000000000000 /
1#
#310000
0#
1$
b1110 2
#315000
b110010010000000000111100000000000000000000000000 !
b110010010000000000111100000000000000000000000000 &
b1111 (
b1111 )
b1110010010000000000111100000000000000000000000000 .
b1110010010000000000111100000000000000000000000000 1
1#
#320000
0#
0$
#325000
b110111010000000000111100000000000000000000000000 /
1#
#330000
0#
1$
b1111 2
#335000
b110111010000000000111100000000000000000000000000 !
b110111010000000000111100000000000000000000000000 &
b0 "
b0 '
b10000 (
b10000 )
b110111010000000000111100000000000000000000000000 .
b110111010000000000111100000000000000000000000000 1
1#
#340000
0#
0$
#345000
b1110010010000000000101000000000000001010000000000 /
1#
#350000
0#
1$
b10000 2
#355000
b110010010000000000101000000000000001010000000000 !
b110010010000000000101000000000000001010000000000 &
b1 "
b1 '
b10001 (
b10001 )
b1110010010000000000101000000000000001010000000000 .
b1110010010000000000101000000000000001010000000000 1
1#
#360000
0#
0$
#365000
b1110010010000000000101000000000000000000000000000 /
1#
#370000
0#
1$
b10001 2
#375000
b110010010000000000101000000000000000000000000000 !
b110010010000000000101000000000000000000000000000 &
b10010 (
b10010 )
b1110010010000000000101000000000000000000000000000 .
b1110010010000000000101000000000000000000000000000 1
1#
#380000
0#
0$
#385000
b1110111010000000000101000000000000001010000000000 /
1#
#390000
0#
1$
b10010 2
#395000
b110111010000000000101000000000000001010000000000 !
b110111010000000000101000000000000001010000000000 &
b10011 (
b10011 )
b1110111010000000000101000000000000001010000000000 .
b1110111010000000000101000000000000001010000000000 1
1#
#400000
0#
0$
#405000
b110010010000000000101000000000000001010000000000 /
1#
#410000
0#
1$
b10011 2
#415000
b110010010000000000101000000000000001010000000000 !
b110010010000000000101000000000000001010000000000 &
b0 "
b0 '
b10100 (
b10100 )
b110010010000000000101000000000000001010000000000 .
b110010010000000000101000000000000001010000000000 1
1#
#420000
0#
0$
#425000
b1110111010000000000101000000000000001010000000000 /
1#
#430000
0#
1$
b10100 2
#435000
b110111010000000000101000000000000001010000000000 !
b110111010000000000101000000000000001010000000000 &
b1 "
b1 '
b10101 (
b10101 )
b1110111010000000000101000000000000001010000000000 .
b1110111010000000000101000000000000001010000000000 1
1#
#440000
0#
0$
#445000
b1110010010000000000101000000000000000000000000000 /
1#
#450000
0#
1$
b10101 2
#455000
b110010010000000000101000000000000000000000000000 !
b110010010000000000101000000000000000000000000000 &
b10110 (
b10110 )
b1110010010000000000101000000000000000000000000000 .
b1110010010000000000101000000000000000000000000000 1
1#
#460000
0#
0$
#465000
b1110111010000000000101000000000000000000000000000 /
1#
#470000
0#
1$
b10110 2
#475000
b110111010000000000101000000000000000000000000000 !
b110111010000000000101000000000000000000000000000 &
b10111 (
b10111 )
b1110111010000000000101000000000000000000000000000 .
b1110111010000000000101000000000000000000000000000 1
1#
#480000
0#
0$
#485000
b110111010000000000101000000000000001010000000000 /
1#
#490000
0#
1$
b10111 2
#495000
b110111010000000000101000000000000001010000000000 !
b110111010000000000101000000000000001010000000000 &
b0 "
b0 '
b11000 (
b11000 )
b110111010000000000101000000000000001010000000000 .
b110111010000000000101000000000000001010000000000 1
1#
#500000
0#
0$
#505000
b1110010010000000000111100000000000001010000000000 /
1#
#510000
0#
1$
b11000 2
#515000
b110010010000000000111100000000000001010000000000 !
b110010010000000000111100000000000001010000000000 &
b1 "
b1 '
b11001 (
b11001 )
b1110010010000000000111100000000000001010000000000 .
b1110010010000000000111100000000000001010000000000 1
1#
#520000
0#
0$
#525000
b1110010010000000000111100000000000000000000000000 /
1#
#530000
0#
1$
b11001 2
#535000
b110010010000000000111100000000000000000000000000 !
b110010010000000000111100000000000000000000000000 &
b11010 (
b11010 )
b1110010010000000000111100000000000000000000000000 .
b1110010010000000000111100000000000000000000000000 1
1#
#540000
0#
0$
#545000
b1110010010000000000101000000000000001010000000000 /
1#
#550000
0#
1$
b11010 2
#555000
b110010010000000000101000000000000001010000000000 !
b110010010000000000101000000000000001010000000000 &
b11011 (
b11011 )
b1110010010000000000101000000000000001010000000000 .
b1110010010000000000101000000000000001010000000000 1
1#
#560000
0#
0$
#565000
b110010010000000000111100000000000001010000000000 /
1#
#570000
0#
1$
b11011 2
#575000
b110010010000000000111100000000000001010000000000 !
b110010010000000000111100000000000001010000000000 &
b0 "
b0 '
b11100 (
b11100 )
b110010010000000000111100000000000001010000000000 .
b110010010000000000111100000000000001010000000000 1
1#
#580000
0#
0$
#585000
b1110010010000000000101000000000000001010000000000 /
1#
#590000
0#
1$
b11100 2
#595000
b110010010000000000101000000000000001010000000000 !
b110010010000000000101000000000000001010000000000 &
b1 "
b1 '
b11101 (
b11101 )
b1110010010000000000101000000000000001010000000000 .
b1110010010000000000101000000000000001010000000000 1
1#
#600000
0#
0$
#605000
b1110010010000000000111100000000000000000000000000 /
1#
#610000
0#
1$
b11101 2
#615000
b110010010000000000111100000000000000000000000000 !
b110010010000000000111100000000000000000000000000 &
b11110 (
b11110 )
b1110010010000000000111100000000000000000000000000 .
b1110010010000000000111100000000000000000000000000 1
1#
#620000
0#
0$
#625000
b1110010010000000000101000000000000000000000000000 /
1#
#630000
0#
1$
b11110 2
#635000
b110010010000000000101000000000000000000000000000 !
b110010010000000000101000000000000000000000000000 &
b11111 (
b11111 )
b1110010010000000000101000000000000000000000000000 .
b1110010010000000000101000000000000000000000000000 1
1#
#640000
0#
0$
#645000
b110010010000000000101000000000000001010000000000 /
1#
#650000
0#
1$
b11111 2
#655000
b110010010000000000101000000000000001010000000000 !
b110010010000000000101000000000000001010000000000 &
b0 "
b0 '
b100000 (
b100000 )
b110010010000000000101000000000000001010000000000 .
b110010010000000000101000000000000001010000000000 1
1#
#660000
0#
0$
#665000
b1110111010000000000111100000000000001010000000000 /
1#
#670000
0#
1$
b100000 2
#675000
b110111010000000000111100000000000001010000000000 !
b110111010000000000111100000000000001010000000000 &
b1 "
b1 '
b100001 (
b100001 )
b1110111010000000000111100000000000001010000000000 .
b1110111010000000000111100000000000001010000000000 1
1#
#680000
0#
0$
#685000
b1110111010000000000111100000000000000000000000000 /
1#
#690000
0#
1$
b100001 2
#695000
b110111010000000000111100000000000000000000000000 !
b110111010000000000111100000000000000000000000000 &
b100010 (
b100010 )
b1110111010000000000111100000000000000000000000000 .
b1110111010000000000111100000000000000000000000000 1
1#
#700000
0#
0$
#705000
b1110010010000000000111100000000000001010000000000 /
1#
#710000
0#
1$
b100010 2
#715000
b110010010000000000111100000000000001010000000000 !
b110010010000000000111100000000000001010000000000 &
b100011 (
b100011 )
b1110010010000000000111100000000000001010000000000 .
b1110010010000000000111100000000000001010000000000 1
1#
#720000
0#
0$
#725000
b110111010000000000111100000000000001010000000000 /
1#
#730000
0#
1$
b100011 2
#735000
b110111010000000000111100000000000001010000000000 !
b110111010000000000111100000000000001010000000000 &
b0 "
b0 '
b100100 (
b100100 )
b110111010000000000111100000000000001010000000000 .
b110111010000000000111100000000000001010000000000 1
1#
#740000
0#
0$
#745000
b1110010010000000000111100000000000001010000000000 /
1#
#750000
0#
1$
b100100 2
#755000
b110010010000000000111100000000000001010000000000 !
b110010010000000000111100000000000001010000000000 &
b1 "
b1 '
b100101 (
b100101 )
b1110010010000000000111100000000000001010000000000 .
b1110010010000000000111100000000000001010000000000 1
1#
#760000
0#
0$
#765000
b1110111010000000000111100000000000000000000000000 /
1#
#770000
0#
1$
b100101 2
#775000
b110111010000000000111100000000000000000000000000 !
b110111010000000000111100000000000000000000000000 &
b100110 (
b100110 )
b1110111010000000000111100000000000000000000000000 .
b1110111010000000000111100000000000000000000000000 1
1#
#780000
0#
0$
#785000
b1110010010000000000111100000000000000000000000000 /
1#
#790000
0#
1$
b100110 2
#795000
b110010010000000000111100000000000000000000000000 !
b110010010000000000111100000000000000000000000000 &
b100111 (
b100111 )
b1110010010000000000111100000000000000000000000000 .
b1110010010000000000111100000000000000000000000000 1
1#
#800000
0#
0$
#805000
b110010010000000000111100000000000001010000000000 /
1#
#810000
0#
1$
b100111 2
#815000
b110010010000000000111100000000000001010000000000 !
b110010010000000000111100000000000001010000000000 &
b0 "
b0 '
b101000 (
b101000 )
b110010010000000000111100000000000001010000000000 .
b110010010000000000111100000000000001010000000000 1
1#
#820000
0#
0$
#825000
b1110111010000000000101000000000000001010000000000 /
1#
#830000
0#
1$
b101000 2
#835000
b110111010000000000101000000000000001010000000000 !
b110111010000000000101000000000000001010000000000 &
b1 "
b1 '
b101001 (
b101001 )
b1110111010000000000101000000000000001010000000000 .
b1110111010000000000101000000000000001010000000000 1
1#
#840000
0#
0$
#845000
b1110111010000000000101000000000000000000000000000 /
1#
#850000
0#
1$
b101001 2
#855000
b110111010000000000101000000000000000000000000000 !
b110111010000000000101000000000000000000000000000 &
b101010 (
b101010 )
b1110111010000000000101000000000000000000000000000 .
b1110111010000000000101000000000000000000000000000 1
1#
#860000
0#
0$
#865000
b1110111010000000000111100000000000001010000000000 /
1#
#870000
0#
1$
b101010 2
#875000
b110111010000000000111100000000000001010000000000 !
b110111010000000000111100000000000001010000000000 &
b101011 (
b101011 )
b1110111010000000000111100000000000001010000000000 .
b1110111010000000000111100000000000001010000000000 1
1#
#880000
0#
0$
#885000
b110111010000000000101000000000000001010000000000 /
1#
#890000
0#
1$
b101011 2
#895000
b110111010000000000101000000000000001010000000000 !
b110111010000000000101000000000000001010000000000 &
b0 "
b0 '
b101100 (
b101100 )
b110111010000000000101000000000000001010000000000 .
b110111010000000000101000000000000001010000000000 1
1#
#900000
0#
0$
#905000
b1110111010000000000111100000000000001010000000000 /
1#
#910000
0#
1$
b101100 2
#915000
b110111010000000000111100000000000001010000000000 !
b110111010000000000111100000000000001010000000000 &
b1 "
b1 '
b101101 (
b101101 )
b1110111010000000000111100000000000001010000000000 .
b1110111010000000000111100000000000001010000000000 1
1#
#920000
0#
0$
#925000
b1110111010000000000101000000000000000000000000000 /
1#
#930000
0#
1$
b101101 2
#935000
b110111010000000000101000000000000000000000000000 !
b110111010000000000101000000000000000000000000000 &
b101110 (
b101110 )
b1110111010000000000101000000000000000000000000000 .
b1110111010000000000101000000000000000000000000000 1
1#
#940000
0#
0$
#945000
b1110111010000000000111100000000000000000000000000 /
1#
#950000
0#
1$
b101110 2
#955000
b110111010000000000111100000000000000000000000000 !
b110111010000000000111100000000000000000000000000 &
b101111 (
b101111 )
b1110111010000000000111100000000000000000000000000 .
b1110111010000000000111100000000000000000000000000 1
1#
#960000
0#
0$
#965000
b110111010000000000111100000000000001010000000000 /
1#
#970000
0#
1$
b101111 2
#975000
b110111010000000000111100000000000001010000000000 !
b110111010000000000111100000000000001010000000000 &
b0 "
b0 '
b0 (
b0 )
b110111010000000000111100000000000001010000000000 .
b110111010000000000111100000000000001010000000000 1
1#
#980000
0#
0$
#985000
b1110111010000000000111100000000000001010000000000 /
1#
#990000
0#
b110000 2
#995000
b1 "
b1 '
b1110111010000000000111100000000000001010000000000 .
b1110111010000000000111100000000000001010000000000 1
1#
